{
  "name": "sample-app",
  "version": "0.1.0",
  "private": true,
  "scripts": {
    "serve": "vue-cli-service serve",
    "build": "vue-cli-service build",
    "lint": "vue-cli-service lint"
  },
  "dependencies": {
    "axios": "^0.19.0",
    "core-js": "^3.3.2",
    "spectre.css": "^0.5.8",
    "vue": "^2.6.10"
  },
  "devDependencies": {
    "@vue/cli-plugin-babel": "^4.0.0",
    "@vue/cli-plugin-eslint": "^4.0.0",
    "@vue/cli-service": "^4.0.0",
    "babel-eslint": "^10.0.3",
    "eslint": "^5.16.0",
    "eslint-plugin-vue": "^5.0.0",
    "vue-template-compiler": "^2.6.10"
  },
  "postcss": {
    "plugins": {
      "autoprefixer": {}
    }
  },
  "browserslist": [
    "> 1%",
    "last 2 versions"
  ]
}
